br\com\thimilo\longshort\base\dto\response\ResponseData.class
br\com\thimilo\longshort\base\dto\response\ResponseDataErro.class
br\com\thimilo\longshort\base\gateway\DeletarGateway.class
br\com\thimilo\longshort\base\usecase\BaseUsecase.class
br\com\thimilo\longshort\base\gateway\BuscarPorIdGateway.class
br\com\thimilo\longshort\base\gateway\SalvarGateway.class
br\com\thimilo\longshort\base\dto\response\BaseResponse.class
br\com\thimilo\longshort\base\dto\response\ListaErroEnum.class
br\com\thimilo\longshort\base\entity\BaseEntity.class
